%YAML 1.1
%TAG !u! tag:unity3d.com,2011:
--- !u!1 &8679596230986736724
GameObject:
  m_ObjectHideFlags: 0
  m_CorrespondingSourceObject: {fileID: 0}
  m_PrefabInstance: {fileID: 0}
  m_PrefabAsset: {fileID: 0}
  serializedVersion: 6
  m_Component:
  - component: {fileID: 8679596230986736722}
  - component: {fileID: 8679596230986736723}
  m_Layer: 0
  m_Name: Asteroid Spawner
  m_TagString: Untagged
  m_Icon: {fileID: 0}
  m_NavMeshLayer: 0
  m_StaticEditorFlags: 0
  m_IsActive: 1
--- !u!4 &8679596230986736722
Transform:
  m_ObjectHideFlags: 0
  m_CorrespondingSourceObject: {fileID: 0}
  m_PrefabInstance: {fileID: 0}
  m_PrefabAsset: {fileID: 0}
  m_GameObject: {fileID: 8679596230986736724}
  m_LocalRotation: {x: 0, y: 0, z: 0, w: 1}
  m_LocalPosition: {x: -10.2, y: 1.06, z: 0}
  m_LocalScale: {x: 1, y: 1, z: 1}
  m_Children: []
  m_Father: {fileID: 0}
  m_RootOrder: 0
  m_LocalEulerAnglesHint: {x: 0, y: 0, z: 0}
--- !u!114 &8679596230986736723
MonoBehaviour:
  m_ObjectHideFlags: 0
  m_CorrespondingSourceObject: {fileID: 0}
  m_PrefabInstance: {fileID: 0}
  m_PrefabAsset: {fileID: 0}
  m_GameObject: {fileID: 8679596230986736724}
  m_Enabled: 1
  m_EditorHideFlags: 0
  m_Script: {fileID: 11500000, guid: 86a2a22ab347a0b45a577b3ce6df9bd5, type: 3}
  m_Name: 
  m_EditorClassIdentifier: 
  spawnList:
  - spawnable: {fileID: 210419247481054329, guid: b428efad88a4d3f4d9784e2c4d9f141e,
      type: 3}
    chance: 1
  - spawnable: {fileID: 3803103031771116204, guid: d37e36d6842a80740a4879e166760192,
      type: 3}
    chance: 1
  - spawnable: {fileID: 3335827092562328969, guid: 2fb3010e12f5da14491584b90e4e9660,
      type: 3}
    chance: 1
  - spawnable: {fileID: 3142473985604124849, guid: 576864cd356539d4abc9c011588dcaea,
      type: 3}
    chance: 1
  - spawnable: {fileID: 7375871882375702106, guid: e9827f5de0c6b8144b2c3a9bdf3a976e,
      type: 3}
    chance: 1
  - spawnable: {fileID: 6519491607140439795, guid: a70a2e2d6c289a14c9fafc14dd470fa8,
      type: 3}
    chance: 1
  - spawnable: {fileID: 7564325725370421316, guid: 9b464ec5c6484dc4a9ace84d284f572f,
      type: 3}
    chance: 1
  cooldownTime: 1
  active: 1
  useRigidbodyMass: 0
  force: 100
  angle: 0
