%YAML 1.1
%TAG !u! tag:unity3d.com,2011:
--- !u!1 &981039715629980265
GameObject:
  m_ObjectHideFlags: 0
  m_CorrespondingSourceObject: {fileID: 0}
  m_PrefabInstance: {fileID: 0}
  m_PrefabAsset: {fileID: 0}
  serializedVersion: 6
  m_Component:
  - component: {fileID: 4471569709605016752}
  - component: {fileID: 7107345096162723932}
  m_Layer: 0
  m_Name: DataManager
  m_TagString: Untagged
  m_Icon: {fileID: 0}
  m_NavMeshLayer: 0
  m_StaticEditorFlags: 0
  m_IsActive: 1
--- !u!4 &4471569709605016752
Transform:
  m_ObjectHideFlags: 0
  m_CorrespondingSourceObject: {fileID: 0}
  m_PrefabInstance: {fileID: 0}
  m_PrefabAsset: {fileID: 0}
  m_GameObject: {fileID: 981039715629980265}
  m_LocalRotation: {x: 0, y: 0, z: 0, w: 1}
  m_LocalPosition: {x: -1.9792318, y: 7.4836783, z: -2.0774999}
  m_LocalScale: {x: 1, y: 1, z: 1}
  m_Children: []
  m_Father: {fileID: 0}
  m_RootOrder: 0
  m_LocalEulerAnglesHint: {x: 0, y: 0, z: 0}
--- !u!114 &7107345096162723932
MonoBehaviour:
  m_ObjectHideFlags: 0
  m_CorrespondingSourceObject: {fileID: 0}
  m_PrefabInstance: {fileID: 0}
  m_PrefabAsset: {fileID: 0}
  m_GameObject: {fileID: 981039715629980265}
  m_Enabled: 1
  m_EditorHideFlags: 0
  m_Script: {fileID: 11500000, guid: 5a3c45cae15df8b42bc2911b1ab65d89, type: 3}
  m_Name: 
  m_EditorClassIdentifier: 
  Playable_Characters:
  - {fileID: 9178167729369683364, guid: e0df2f3c5fbe42949a3e7122b1779414, type: 3}
  - {fileID: 9178167729369683364, guid: 038d7cc0685f7ac4aa5a881c2e8e5073, type: 3}
  - {fileID: 9178167729369683364, guid: 0774ed472a057cf4d819b63fd6eb9afb, type: 3}
  - {fileID: 9178167729369683364, guid: a09f9aea541bda94c91369b94726e5cd, type: 3}
  Projectiles:
  - {fileID: 4302857253931628715, guid: 13f70b6ea7c010241a0a5519c0726b1b, type: 3}
  - {fileID: 3669174627591236288, guid: 2fb3010e12f5da14491584b90e4e9660, type: 3}
  - {fileID: -3428817071689445812, guid: a70a2e2d6c289a14c9fafc14dd470fa8, type: 3}
  - {fileID: -5590803068989143566, guid: e9827f5de0c6b8144b2c3a9bdf3a976e, type: 3}
  - {fileID: 716083980222757704, guid: d37e36d6842a80740a4879e166760192, type: 3}
