%YAML 1.1
%TAG !u! tag:unity3d.com,2011:
--- !u!114 &11400000
MonoBehaviour:
  m_ObjectHideFlags: 0
  m_CorrespondingSourceObject: {fileID: 0}
  m_PrefabInstance: {fileID: 0}
  m_PrefabAsset: {fileID: 0}
  m_GameObject: {fileID: 0}
  m_Enabled: 1
  m_EditorHideFlags: 0
  m_Script: {fileID: 11500000, guid: 2978fd2e5b7ae724aa2831c93b2d29e3, type: 3}
  m_Name: Joe Palette A
  m_EditorClassIdentifier: 
  colors:
  - {r: 0.7264151, g: 0.18058454, b: 0.12677999, a: 1}
  - {r: 0.9098039, g: 0.4578077, b: 0, a: 1}
  _colorsPositionFilePath: Assets/Sprites/Palletes/Joe Palette A-positions.txt
